%YAML 1.1
%TAG !u! tag:unity3d.com,2011:
--- !u!74 &7400000
AnimationClip:
  m_ObjectHideFlags: 0
  m_PrefabParentObject: {fileID: 0}
  m_PrefabInternal: {fileID: 0}
  m_Name: upperlight
  serializedVersion: 6
  m_Legacy: 0
  m_Compressed: 0
  m_UseHighQualityCurve: 1
  m_RotationCurves: []
  m_CompressedRotationCurves: []
  m_PositionCurves: []
  m_ScaleCurves: []
  m_FloatCurves:
  - curve:
      serializedVersion: 2
      m_Curve:
      - time: 0
        value: 1
        inSlope: Infinity
        outSlope: Infinity
        tangentMode: 31
      - time: .454545468
        value: 1
        inSlope: 2.9333334
        outSlope: 2.9333334
        tangentMode: 10
      - time: .795454562
        value: 3
        inSlope: 2.34666681
        outSlope: 2.34666681
        tangentMode: 10
      - time: 2.5
        value: 1
        inSlope: .16772595
        outSlope: .16772595
        tangentMode: 0
      - time: 3.409091
        value: 1
        inSlope: 0
        outSlope: 0
        tangentMode: 0
      - time: 3.75
        value: 3
        inSlope: 2.34666753
        outSlope: 2.34666753
        tangentMode: 10
      - time: 5.4545455
        value: 1
        inSlope: -.586666644
        outSlope: -.586666644
        tangentMode: 10
      - time: 6.36363649
        value: 1
        inSlope: Infinity
        outSlope: Infinity
        tangentMode: 31
      m_PreInfinity: 2
      m_PostInfinity: 2
    attribute: m_Intensity
    path: 
    classID: 108
    script: {fileID: 0}
  m_PPtrCurves: []
  m_SampleRate: 44
  m_WrapMode: 0
  m_Bounds:
    m_Center: {x: 0, y: 0, z: 0}
    m_Extent: {x: 0, y: 0, z: 0}
  m_ClipBindingConstant:
    genericBindings:
    - path: 0
      attribute: 898800009
      script: {fileID: 0}
      classID: 108
      customType: 0
      isPPtrCurve: 0
    pptrCurveMapping: []
  m_AnimationClipSettings:
    serializedVersion: 2
    m_StartTime: 0
    m_StopTime: 6.36363649
    m_OrientationOffsetY: 0
    m_Level: 0
    m_CycleOffset: 0
    m_LoopTime: 1
    m_LoopBlend: 0
    m_LoopBlendOrientation: 0
    m_LoopBlendPositionY: 0
    m_LoopBlendPositionXZ: 0
    m_KeepOriginalOrientation: 0
    m_KeepOriginalPositionY: 1
    m_KeepOriginalPositionXZ: 0
    m_HeightFromFeet: 0
    m_Mirror: 0
  m_EditorCurves:
  - curve:
      serializedVersion: 2
      m_Curve:
      - time: 0
        value: 1
        inSlope: Infinity
        outSlope: Infinity
        tangentMode: 31
      - time: .454545468
        value: 1
        inSlope: 2.9333334
        outSlope: 2.9333334
        tangentMode: 10
      - time: .795454562
        value: 3
        inSlope: 2.34666681
        outSlope: 2.34666681
        tangentMode: 10
      - time: 2.5
        value: 1
        inSlope: .16772595
        outSlope: .16772595
        tangentMode: 0
      - time: 3.409091
        value: 1
        inSlope: 0
        outSlope: 0
        tangentMode: 0
      - time: 3.75
        value: 3
        inSlope: 2.34666753
        outSlope: 2.34666753
        tangentMode: 10
      - time: 5.4545455
        value: 1
        inSlope: -.586666644
        outSlope: -.586666644
        tangentMode: 10
      - time: 6.36363649
        value: 1
        inSlope: Infinity
        outSlope: Infinity
        tangentMode: 31
      m_PreInfinity: 2
      m_PostInfinity: 2
    attribute: m_Intensity
    path: 
    classID: 108
    script: {fileID: 0}
  m_EulerEditorCurves: []
  m_HasGenericRootTransform: 0
  m_HasMotionFloatCurves: 0
  m_GenerateMotionCurves: 0
  m_Events: []
