%YAML 1.1
%TAG !u! tag:unity3d.com,2011:
--- !u!74 &7400000
AnimationClip:
  m_ObjectHideFlags: 0
  m_PrefabParentObject: {fileID: 0}
  m_PrefabInternal: {fileID: 0}
  m_Name: c5
  serializedVersion: 6
  m_Legacy: 0
  m_Compressed: 0
  m_UseHighQualityCurve: 1
  m_RotationCurves: []
  m_CompressedRotationCurves: []
  m_PositionCurves: []
  m_ScaleCurves:
  - curve:
      serializedVersion: 2
      m_Curve:
      - time: 0
        value: {x: 1.51485264, y: 1.51485229, z: 1.51485229}
        inSlope: {x: 0, y: 0, z: 0}
        outSlope: {x: 0, y: 0, z: 0}
        tangentMode: 0
      - time: 18
        value: {x: 1.51485264, y: 1.51485229, z: 1.51485229}
        inSlope: {x: -.0484491438, y: -.04844914, z: -.04844914}
        outSlope: {x: -.0484491438, y: -.04844914, z: -.04844914}
        tangentMode: 0
      - time: 24
        value: {x: .933462918, y: .93346262, z: .93346262}
        inSlope: {x: -.0968982875, y: -.0968982801, z: -.0968982801}
        outSlope: {x: -.0968982875, y: -.0968982801, z: -.0968982801}
        tangentMode: 0
      m_PreInfinity: 2
      m_PostInfinity: 2
    path: 
  m_FloatCurves:
  - curve:
      serializedVersion: 2
      m_Curve:
      - time: 0
        value: 1
        inSlope: 0
        outSlope: 0
        tangentMode: 10
      - time: 18
        value: 1
        inSlope: 0
        outSlope: 0
        tangentMode: 10
      - time: 24
        value: 1
        inSlope: -.5
        outSlope: -.5
        tangentMode: 10
      - time: 25
        value: 0
        inSlope: -1
        outSlope: -1
        tangentMode: 10
      m_PreInfinity: 2
      m_PostInfinity: 2
    attribute: m_Color.a
    path: 
    classID: 114
    script: {fileID: -98529514, guid: f5f67c52d1564df4a8936ccd202a3bd8, type: 3}
  m_PPtrCurves: []
  m_SampleRate: 60
  m_WrapMode: 0
  m_Bounds:
    m_Center: {x: 0, y: 0, z: 0}
    m_Extent: {x: 0, y: 0, z: 0}
  m_ClipBindingConstant:
    genericBindings:
    - path: 0
      attribute: 3
      script: {fileID: 0}
      classID: 4
      customType: 0
      isPPtrCurve: 0
    - path: 0
      attribute: 304273561
      script: {fileID: -98529514, guid: f5f67c52d1564df4a8936ccd202a3bd8, type: 3}
      classID: 114
      customType: 0
      isPPtrCurve: 0
    pptrCurveMapping: []
  m_AnimationClipSettings:
    serializedVersion: 2
    m_StartTime: 0
    m_StopTime: 25
    m_OrientationOffsetY: 0
    m_Level: 0
    m_CycleOffset: 0
    m_LoopTime: 0
    m_LoopBlend: 0
    m_LoopBlendOrientation: 0
    m_LoopBlendPositionY: 0
    m_LoopBlendPositionXZ: 0
    m_KeepOriginalOrientation: 0
    m_KeepOriginalPositionY: 1
    m_KeepOriginalPositionXZ: 0
    m_HeightFromFeet: 0
    m_Mirror: 0
  m_EditorCurves:
  - curve:
      serializedVersion: 2
      m_Curve:
      - time: 0
        value: 1
        inSlope: 0
        outSlope: 0
        tangentMode: 10
      - time: 18
        value: 1
        inSlope: 0
        outSlope: 0
        tangentMode: 10
      - time: 24
        value: 1
        inSlope: -.5
        outSlope: -.5
        tangentMode: 10
      - time: 25
        value: 0
        inSlope: -1
        outSlope: -1
        tangentMode: 10
      m_PreInfinity: 2
      m_PostInfinity: 2
    attribute: m_Color.a
    path: 
    classID: 114
    script: {fileID: -98529514, guid: f5f67c52d1564df4a8936ccd202a3bd8, type: 3}
  - curve:
      serializedVersion: 2
      m_Curve:
      - time: 0
        value: 1.51485264
        inSlope: 0
        outSlope: 0
        tangentMode: 10
      - time: 18
        value: 1.51485264
        inSlope: -.0484491438
        outSlope: -.0484491438
        tangentMode: 10
      - time: 24
        value: .933462918
        inSlope: -.0968982875
        outSlope: -.0968982875
        tangentMode: 10
      m_PreInfinity: 2
      m_PostInfinity: 2
    attribute: m_LocalScale.x
    path: 
    classID: 224
    script: {fileID: 0}
  - curve:
      serializedVersion: 2
      m_Curve:
      - time: 0
        value: 1.51485229
        inSlope: 0
        outSlope: 0
        tangentMode: 10
      - time: 18
        value: 1.51485229
        inSlope: -.04844914
        outSlope: -.04844914
        tangentMode: 10
      - time: 24
        value: .93346262
        inSlope: -.0968982801
        outSlope: -.0968982801
        tangentMode: 10
      m_PreInfinity: 2
      m_PostInfinity: 2
    attribute: m_LocalScale.y
    path: 
    classID: 224
    script: {fileID: 0}
  - curve:
      serializedVersion: 2
      m_Curve:
      - time: 0
        value: 1.51485229
        inSlope: 0
        outSlope: 0
        tangentMode: 10
      - time: 18
        value: 1.51485229
        inSlope: -.04844914
        outSlope: -.04844914
        tangentMode: 10
      - time: 24
        value: .93346262
        inSlope: -.0968982801
        outSlope: -.0968982801
        tangentMode: 10
      m_PreInfinity: 2
      m_PostInfinity: 2
    attribute: m_LocalScale.z
    path: 
    classID: 224
    script: {fileID: 0}
  m_EulerEditorCurves: []
  m_HasGenericRootTransform: 0
  m_HasMotionFloatCurves: 0
  m_GenerateMotionCurves: 0
  m_Events: []
